{
  "id": 7,
  "name": "Božkov",
  "volume": 1000,
  "imageFile": "bottles/images/bozkov.jpg",
  "guidelines": [
    {
      "value": 0,
      "height": 0.04
    },
    {
      "value": 100,
      "height": 0.09
    },
    {
      "value": 200,
      "height": 0.17
    },
    {
      "value": 300,
      "height": 0.24
    },
    {
      "value": 400,
      "height": 0.31
    },
    {
      "value": 500,
      "height": 0.38
    },
    {
      "value": 600,
      "height": 0.45
    },
    {
      "value": 700,
      "height": 0.73
    },
    {
      "value": 800,
      "height": 0.58
    },
    {
      "value": 900,
      "height": 0.66
    },
    {
      "value": 1000,
      "height": 0.84
    }
  ]
}