{
  "id": 9,
  "name": "Tullamore dew",
  "volume": 1000,
  "imageFile": "bottles/images/tullamore_dew.jpg",
  "guidelines": [
    {
      "value": 0,
      "height": 0.04
    },
    {
      "value": 100,
      "height": 0.10
    },
    {
      "value": 200,
      "height": 0.17
    },
    {
      "value": 300,
      "height": 0.23
    },
    {
      "value": 400,
      "height": 0.31
    },
    {
      "value": 500,
      "height": 0.38
    },
    {
      "value": 600,
      "height": 0.45
    },
    {
      "value": 700,
      "height": 0.52
    },
    {
      "value": 800,
      "height": 0.59
    },
    {
      "value": 900,
      "height": 0.66
    },
    {
      "value": 1000,
      "height": 0.76
    }
  ]
}